[
  {
    "grouping": "Outils mathématique",
    "skills": [
      "Traitement du signal",
      "Probabilité"
    ]
  },
  {
    "grouping": "Linux administration",
    "skills": [
      {
        "name": "Bash",
        "icon": "bash"
      },
      {
        "name": "Docker",
        "link": "https://docker.io",
        "icon": "docker"
      },
      {
        "name": "PostgreSQL",
        "link": "https://postgresql.org",
        "icon": "postgresql"
      },
      {
        "name": "Nginx",
        "link": "https://nginx.com",
        "icon": "nginx"
      }
    ]
  },
  {
    "grouping": "Programming",
    "skills": [
      {
        "name": "python",
        "icon": "python"
      },
      {
        "name": "C",
        "icon": "C"
      },
      {
        "name": "C++",
        "icon": "C++"
      },
      {
        "name": "Cuda",
        "icon": "cuda"
      },
      {
        "name": "VHDL",
        "icon": "vhdl"
      }
    ]
  },

  {
    "grouping" : "Other",
    "skills" : [
      {
        "name" : "LaTeX",
        "icon" : "latex"
      },
      {
        "name" : "git",
        "icon" : "git"
      }
    ]
  }
]